[
  {
    "_class": "fr.efrei.carbon.codingameapi.models.Technology",
    "id": 1,
    "name": "Spring"
  },
  {
    "_class": "fr.efrei.carbon.codingameapi.models.Technology",
    "id": 2,
    "name": "ASP.NET"
  },
  {
    "_class": "fr.efrei.carbon.codingameapi.models.Technology",
    "id": 3,
    "name": "Ktor"
  }
]
